...................
----------------------------------------------------------------------
Ran 19 tests in 0.541s

OK
Name                  Stmts   Miss Branch BrPart  Cover   Missing
-----------------------------------------------------------------
Collatz.py               36      0     14      1    98%   51->50
CollatzOptimizer.py      26     13     12      1    42%   8-18, 27-29, 43->exit
TestCollatz.py           83      0      0      0   100%
-----------------------------------------------------------------
TOTAL                   145     13     26      2    87%
