...............................
----------------------------------------------------------------------
Ran 31 tests in 0.094s

OK
Name             Stmts   Miss Branch BrPart  Cover   Missing
------------------------------------------------------------
Collatz.py          45      3     18      2    92%   95-97, 111->exit
TestCollatz.py     136      0      0      0   100%
------------------------------------------------------------
TOTAL              181      3     18      2    97%
